Michigame Highlands Exploration
…
=======

## # A tibble: 130 x 3
##    evt                       height  percent
##    <fct>                      <dbl>    <dbl>
##  1 Northern Hardwoods Forest      0 0       
##  2 Northern Hardwoods Forest      1 0       
##  3 Northern Hardwoods Forest      2 0       
##  4 Northern Hardwoods Forest      3 0       
##  5 Northern Hardwoods Forest      4 0       
##  6 Northern Hardwoods Forest      5 0.000334
##  7 Northern Hardwoods Forest      6 0.000534
##  8 Northern Hardwoods Forest      7 0.00107 
##  9 Northern Hardwoods Forest      8 0.00554 
## 10 Northern Hardwoods Forest      9 0.0171  
## # ... with 120 more rows
…
